../Middlewares/LoRaWAN/Mac/Region/Region.c:544:6:RegionIsActive	16	static
../Middlewares/LoRaWAN/Mac/Region/Region.c:565:12:RegionGetPhyParam	24	static
../Middlewares/LoRaWAN/Mac/Region/Region.c:587:6:RegionSetBandTxDone	16	static
../Middlewares/LoRaWAN/Mac/Region/Region.c:608:6:RegionInitDefaults	16	static
../Middlewares/LoRaWAN/Mac/Region/Region.c:629:6:RegionVerify	16	static
../Middlewares/LoRaWAN/Mac/Region/Region.c:650:6:RegionApplyCFList	16	static
../Middlewares/LoRaWAN/Mac/Region/Region.c:671:6:RegionChanMaskSet	16	static
../Middlewares/LoRaWAN/Mac/Region/Region.c:692:6:RegionComputeRxWindowParameters	16	static
../Middlewares/LoRaWAN/Mac/Region/Region.c:713:6:RegionRxConfig	24	static
../Middlewares/LoRaWAN/Mac/Region/Region.c:734:6:RegionTxConfig	24	static
../Middlewares/LoRaWAN/Mac/Region/Region.c:755:9:RegionLinkAdrReq	32	static
../Middlewares/LoRaWAN/Mac/Region/Region.c:776:9:RegionRxParamSetupReq	16	static
../Middlewares/LoRaWAN/Mac/Region/Region.c:797:8:RegionNewChannelReq	16	static
../Middlewares/LoRaWAN/Mac/Region/Region.c:818:8:RegionTxParamSetupReq	16	static
../Middlewares/LoRaWAN/Mac/Region/Region.c:839:8:RegionDlChannelReq	16	static
../Middlewares/LoRaWAN/Mac/Region/Region.c:860:8:RegionAlternateDr	16	static
../Middlewares/LoRaWAN/Mac/Region/Region.c:881:17:RegionNextChannel	24	static
../Middlewares/LoRaWAN/Mac/Region/Region.c:902:17:RegionChannelAdd	16	static
../Middlewares/LoRaWAN/Mac/Region/Region.c:923:6:RegionChannelsRemove	16	static
../Middlewares/LoRaWAN/Mac/Region/Region.c:944:6:RegionSetContinuousWave	16	static
../Middlewares/LoRaWAN/Mac/Region/Region.c:965:9:RegionApplyDrOffset	24	static
../Middlewares/LoRaWAN/Mac/Region/Region.c:986:6:RegionRxBeaconSetup	24	static
../Middlewares/LoRaWAN/Mac/Region/Region.c:1007:11:RegionGetVersion	16	static
