../Middlewares/LoRaWAN/Mac/Region/RegionCN470.c:91:12:RegionCN470GetPhyParam	24	static
../Middlewares/LoRaWAN/Mac/Region/RegionCN470.c:315:6:RegionCN470SetBandTxDone	16	static
../Middlewares/LoRaWAN/Mac/Region/RegionCN470.c:323:6:RegionCN470InitDefaults	16	static
../Middlewares/LoRaWAN/Mac/Region/RegionCN470.c:397:6:RegionCN470Verify	16	static
../Middlewares/LoRaWAN/Mac/Region/RegionCN470.c:433:6:RegionCN470ApplyCFList	16	static
../Middlewares/LoRaWAN/Mac/Region/RegionCN470.c:457:6:RegionCN470ChanMaskSet	16	static
../Middlewares/LoRaWAN/Mac/Region/RegionCN470.c:481:6:RegionCN470ComputeRxWindowParameters	24	static
../Middlewares/LoRaWAN/Mac/Region/RegionCN470.c:496:6:RegionCN470RxConfig	16	static
../Middlewares/LoRaWAN/Mac/Region/RegionCN470.c:545:6:RegionCN470TxConfig	24	static
../Middlewares/LoRaWAN/Mac/Region/RegionCN470.c:577:9:RegionCN470LinkAdrReq	32	static
../Middlewares/LoRaWAN/Mac/Region/RegionCN470.c:676:9:RegionCN470RxParamSetupReq	24	static
../Middlewares/LoRaWAN/Mac/Region/RegionCN470.c:703:8:RegionCN470NewChannelReq	16	static
../Middlewares/LoRaWAN/Mac/Region/RegionCN470.c:709:8:RegionCN470TxParamSetupReq	16	static
../Middlewares/LoRaWAN/Mac/Region/RegionCN470.c:715:8:RegionCN470DlChannelReq	16	static
../Middlewares/LoRaWAN/Mac/Region/RegionCN470.c:721:8:RegionCN470AlternateDr	16	static
../Middlewares/LoRaWAN/Mac/Region/RegionCN470.c:730:17:RegionCN470NextChannel	24	static
../Middlewares/LoRaWAN/Mac/Region/RegionCN470.c:785:17:RegionCN470ChannelAdd	16	static
../Middlewares/LoRaWAN/Mac/Region/RegionCN470.c:790:6:RegionCN470ChannelsRemove	16	static
../Middlewares/LoRaWAN/Mac/Region/RegionCN470.c:795:6:RegionCN470SetContinuousWave	16	static
../Middlewares/LoRaWAN/Mac/Region/RegionCN470.c:809:9:RegionCN470ApplyDrOffset	16	static
../Middlewares/LoRaWAN/Mac/Region/RegionCN470.c:824:6:RegionCN470RxBeaconSetup	16	static
