../Middlewares/LoRaWAN/Mac/Region/RegionEU868.c:57:13:VerifyRfFreq	16	static
../Middlewares/LoRaWAN/Mac/Region/RegionEU868.c:97:20:GetTimeOnAir	56	static
../Middlewares/LoRaWAN/Mac/Region/RegionEU868.c:115:12:RegionEU868GetPhyParam	40	static
../Middlewares/LoRaWAN/Mac/Region/RegionEU868.c:325:6:RegionEU868SetBandTxDone	32	static
../Middlewares/LoRaWAN/Mac/Region/RegionEU868.c:333:6:RegionEU868InitDefaults	200	static
../Middlewares/LoRaWAN/Mac/Region/RegionEU868.c:397:6:RegionEU868Verify	24	static
../Middlewares/LoRaWAN/Mac/Region/RegionEU868.c:437:6:RegionEU868ApplyCFList	48	static
../Middlewares/LoRaWAN/Mac/Region/RegionEU868.c:498:6:RegionEU868ChanMaskSet	16	static
../Middlewares/LoRaWAN/Mac/Region/RegionEU868.c:522:6:RegionEU868ComputeRxWindowParameters	40	static
../Middlewares/LoRaWAN/Mac/Region/RegionEU868.c:544:6:RegionEU868RxConfig	80	static
../Middlewares/LoRaWAN/Mac/Region/RegionEU868.c:610:6:RegionEU868TxConfig	88	static
../Middlewares/LoRaWAN/Mac/Region/RegionEU868.c:652:9:RegionEU868LinkAdrReq	88	static
../Middlewares/LoRaWAN/Mac/Region/RegionEU868.c:759:9:RegionEU868RxParamSetupReq	24	static
../Middlewares/LoRaWAN/Mac/Region/RegionEU868.c:787:8:RegionEU868NewChannelReq	32	static
../Middlewares/LoRaWAN/Mac/Region/RegionEU868.c:840:8:RegionEU868TxParamSetupReq	16	static
../Middlewares/LoRaWAN/Mac/Region/RegionEU868.c:846:8:RegionEU868DlChannelReq	24	static
../Middlewares/LoRaWAN/Mac/Region/RegionEU868.c:874:8:RegionEU868AlternateDr	16	static
../Middlewares/LoRaWAN/Mac/Region/RegionEU868.c:883:17:RegionEU868NextChannel	112	static
../Middlewares/LoRaWAN/Mac/Region/RegionEU868.c:938:17:RegionEU868ChannelAdd	24	static
../Middlewares/LoRaWAN/Mac/Region/RegionEU868.c:1002:6:RegionEU868ChannelsRemove	32	static
../Middlewares/LoRaWAN/Mac/Region/RegionEU868.c:1021:6:RegionEU868SetContinuousWave	32	static
../Middlewares/LoRaWAN/Mac/Region/RegionEU868.c:1035:9:RegionEU868ApplyDrOffset	24	static
../Middlewares/LoRaWAN/Mac/Region/RegionEU868.c:1050:6:RegionEU868RxBeaconSetup	40	static
