../Middlewares/FreeRTOS/Source/tasks.c:578:15:xTaskCreateStatic	64	static,ignoring_inline_asm
../Middlewares/FreeRTOS/Source/tasks.c:730:13:xTaskCreate	56	static
../Middlewares/FreeRTOS/Source/tasks.c:821:13:prvInitialiseNewTask	40	static,ignoring_inline_asm
../Middlewares/FreeRTOS/Source/tasks.c:1072:13:prvAddNewTaskToReadyList	16	static,ignoring_inline_asm
../Middlewares/FreeRTOS/Source/tasks.c:1157:7:vTaskDelete	24	static,ignoring_inline_asm
../Middlewares/FreeRTOS/Source/tasks.c:1333:7:vTaskDelay	24	static,ignoring_inline_asm
../Middlewares/FreeRTOS/Source/tasks.c:1470:14:uxTaskPriorityGet	24	static
../Middlewares/FreeRTOS/Source/tasks.c:1492:14:uxTaskPriorityGetFromISR	40	static,ignoring_inline_asm
../Middlewares/FreeRTOS/Source/tasks.c:1532:7:vTaskPrioritySet	40	static,ignoring_inline_asm
../Middlewares/FreeRTOS/Source/tasks.c:1696:7:vTaskSuspend	24	static,ignoring_inline_asm
../Middlewares/FreeRTOS/Source/tasks.c:1797:20:prvTaskIsTaskSuspended	32	static,ignoring_inline_asm
../Middlewares/FreeRTOS/Source/tasks.c:1843:7:vTaskResume	24	static,ignoring_inline_asm
../Middlewares/FreeRTOS/Source/tasks.c:1897:13:xTaskResumeFromISR	48	static,ignoring_inline_asm
../Middlewares/FreeRTOS/Source/tasks.c:1967:6:vTaskStartScheduler	48	static,ignoring_inline_asm
../Middlewares/FreeRTOS/Source/tasks.c:2089:6:vTaskEndScheduler	16	static,ignoring_inline_asm
../Middlewares/FreeRTOS/Source/tasks.c:2100:6:vTaskSuspendAll	4	static,ignoring_inline_asm
../Middlewares/FreeRTOS/Source/tasks.c:2113:20:prvGetExpectedIdleTime	24	static
../Middlewares/FreeRTOS/Source/tasks.c:2174:12:xTaskResumeAll	24	static,ignoring_inline_asm
../Middlewares/FreeRTOS/Source/tasks.c:2284:12:xTaskGetTickCount	16	static
../Middlewares/FreeRTOS/Source/tasks.c:2299:12:xTaskGetTickCountFromISR	16	static
../Middlewares/FreeRTOS/Source/tasks.c:2330:13:uxTaskGetNumberOfTasks	4	static
../Middlewares/FreeRTOS/Source/tasks.c:2338:7:pcTaskGetName	24	static,ignoring_inline_asm
../Middlewares/FreeRTOS/Source/tasks.c:2576:7:vTaskStepTick	24	static,ignoring_inline_asm
../Middlewares/FreeRTOS/Source/tasks.c:2665:12:xTaskIncrementTick	32	static,ignoring_inline_asm
../Middlewares/FreeRTOS/Source/tasks.c:2947:6:vTaskSwitchContext	32	static,ignoring_inline_asm
../Middlewares/FreeRTOS/Source/tasks.c:3020:6:vTaskPlaceOnEventList	24	static,ignoring_inline_asm
../Middlewares/FreeRTOS/Source/tasks.c:3037:6:vTaskPlaceOnUnorderedEventList	32	static,ignoring_inline_asm
../Middlewares/FreeRTOS/Source/tasks.c:3094:12:xTaskRemoveFromEventList	32	static,ignoring_inline_asm
../Middlewares/FreeRTOS/Source/tasks.c:3162:6:vTaskRemoveFromUnorderedEventList	32	static,ignoring_inline_asm
../Middlewares/FreeRTOS/Source/tasks.c:3196:6:vTaskSetTimeOutState	24	static,ignoring_inline_asm
../Middlewares/FreeRTOS/Source/tasks.c:3208:6:vTaskInternalSetTimeOutState	16	static
../Middlewares/FreeRTOS/Source/tasks.c:3216:12:xTaskCheckForTimeOut	40	static,ignoring_inline_asm
../Middlewares/FreeRTOS/Source/tasks.c:3279:6:vTaskMissedYield	4	static
../Middlewares/FreeRTOS/Source/tasks.c:3334:8:prvIdleTask	24	static,ignoring_inline_asm
../Middlewares/FreeRTOS/Source/tasks.c:3453:19:eTaskConfirmSleepModeStatus	16	static
../Middlewares/FreeRTOS/Source/tasks.c:3546:13:prvInitialiseTaskLists	16	static
../Middlewares/FreeRTOS/Source/tasks.c:3578:13:prvCheckTasksWaitingTermination	16	static
../Middlewares/FreeRTOS/Source/tasks.c:3826:14:prvDeleteTCB	24	static,ignoring_inline_asm
../Middlewares/FreeRTOS/Source/tasks.c:3880:13:prvResetNextTaskUnblockTime	16	static
../Middlewares/FreeRTOS/Source/tasks.c:3906:15:xTaskGetCurrentTaskHandle	16	static
../Middlewares/FreeRTOS/Source/tasks.c:3923:13:xTaskGetSchedulerState	16	static
../Middlewares/FreeRTOS/Source/tasks.c:3951:13:xTaskPriorityInherit	24	static
../Middlewares/FreeRTOS/Source/tasks.c:4038:13:xTaskPriorityDisinherit	32	static,ignoring_inline_asm
../Middlewares/FreeRTOS/Source/tasks.c:4118:7:vTaskPriorityDisinheritAfterTimeout	40	static,ignoring_inline_asm
../Middlewares/FreeRTOS/Source/tasks.c:4533:12:uxTaskResetEventItemValue	16	static
../Middlewares/FreeRTOS/Source/tasks.c:4549:15:pvTaskIncrementMutexHeldCount	4	static
../Middlewares/FreeRTOS/Source/tasks.c:4566:11:ulTaskNotifyTake	24	static,ignoring_inline_asm
../Middlewares/FreeRTOS/Source/tasks.c:4634:13:xTaskNotifyWait	32	static,ignoring_inline_asm
../Middlewares/FreeRTOS/Source/tasks.c:4714:13:xTaskGenericNotify	48	static,ignoring_inline_asm
../Middlewares/FreeRTOS/Source/tasks.c:4828:13:xTaskGenericNotifyFromISR	64	static,ignoring_inline_asm
../Middlewares/FreeRTOS/Source/tasks.c:4957:7:vTaskNotifyGiveFromISR	48	static,ignoring_inline_asm
../Middlewares/FreeRTOS/Source/tasks.c:5044:13:xTaskNotifyStateClear	24	static
../Middlewares/FreeRTOS/Source/tasks.c:5081:13:prvAddCurrentTaskToDelayedList	24	static
