../../EndNode/Drivers/STM32WLxx_HAL_Driver/Inc/stm32wlxx_ll_exti.h:266:22:LL_EXTI_EnableIT_0_31	16	static
../../EndNode/Drivers/STM32WLxx_HAL_Driver/Inc/stm32wlxx_ll_exti.h:408:22:LL_EXTI_DisableIT_0_31	16	static
../../EndNode/Drivers/STM32WLxx_HAL_Driver/Inc/stm32wlxx_ll_exti.h:990:22:LL_EXTI_EnableRisingTrig_0_31	16	static
../../EndNode/Drivers/STM32WLxx_HAL_Driver/Inc/stm32wlxx_ll_exti.h:1050:22:LL_EXTI_DisableRisingTrig_0_31	16	static
../../EndNode/Drivers/STM32WLxx_HAL_Driver/Inc/stm32wlxx_ll_exti.h:1165:22:LL_EXTI_EnableFallingTrig_0_31	16	static
../../EndNode/Drivers/STM32WLxx_HAL_Driver/Inc/stm32wlxx_ll_exti.h:1224:22:LL_EXTI_DisableFallingTrig_0_31	16	static
../Drivers/STM32WLxx_HAL_Driver/Src/stm32wlxx_hal_pwr.c:91:6:HAL_PWR_DeInit	4	static
../Drivers/STM32WLxx_HAL_Driver/Src/stm32wlxx_hal_pwr.c:146:6:HAL_PWR_EnableBkUpAccess	4	static
../Drivers/STM32WLxx_HAL_Driver/Src/stm32wlxx_hal_pwr.c:156:6:HAL_PWR_DisableBkUpAccess	4	static
../Drivers/STM32WLxx_HAL_Driver/Src/stm32wlxx_hal_pwr.c:345:19:HAL_PWR_ConfigPVD	16	static
../Drivers/STM32WLxx_HAL_Driver/Src/stm32wlxx_hal_pwr.c:386:6:HAL_PWR_EnablePVD	4	static
../Drivers/STM32WLxx_HAL_Driver/Src/stm32wlxx_hal_pwr.c:396:6:HAL_PWR_DisablePVD	4	static
../Drivers/STM32WLxx_HAL_Driver/Src/stm32wlxx_hal_pwr.c:418:6:HAL_PWR_EnableWakeUpPin	16	static
../Drivers/STM32WLxx_HAL_Driver/Src/stm32wlxx_hal_pwr.c:443:6:HAL_PWR_DisableWakeUpPin	16	static
../Drivers/STM32WLxx_HAL_Driver/Src/stm32wlxx_hal_pwr.c:476:6:HAL_PWR_EnterSLEEPMode	16	static,ignoring_inline_asm
../Drivers/STM32WLxx_HAL_Driver/Src/stm32wlxx_hal_pwr.c:559:6:HAL_PWR_EnterSTOPMode	16	static
../Drivers/STM32WLxx_HAL_Driver/Src/stm32wlxx_hal_pwr.c:594:6:HAL_PWR_EnterSTANDBYMode	4	static,ignoring_inline_asm
../Drivers/STM32WLxx_HAL_Driver/Src/stm32wlxx_hal_pwr.c:632:6:HAL_PWR_EnableSleepOnExit	4	static
../Drivers/STM32WLxx_HAL_Driver/Src/stm32wlxx_hal_pwr.c:644:6:HAL_PWR_DisableSleepOnExit	4	static
../Drivers/STM32WLxx_HAL_Driver/Src/stm32wlxx_hal_pwr.c:656:6:HAL_PWR_EnableSEVOnPend	4	static
../Drivers/STM32WLxx_HAL_Driver/Src/stm32wlxx_hal_pwr.c:668:6:HAL_PWR_DisableSEVOnPend	4	static
../Drivers/STM32WLxx_HAL_Driver/Src/stm32wlxx_hal_pwr.c:678:13:HAL_PWR_PVDCallback	4	static
