../Drivers/STM32WLxx_HAL_Driver/Src/stm32wlxx_hal_hsem.c:151:20:HAL_HSEM_Take	16	static
../Drivers/STM32WLxx_HAL_Driver/Src/stm32wlxx_hal_hsem.c:176:19:HAL_HSEM_FastTake	16	static
../Drivers/STM32WLxx_HAL_Driver/Src/stm32wlxx_hal_hsem.c:196:10:HAL_HSEM_IsSemTaken	16	static
../Drivers/STM32WLxx_HAL_Driver/Src/stm32wlxx_hal_hsem.c:208:7:HAL_HSEM_Release	16	static
../Drivers/STM32WLxx_HAL_Driver/Src/stm32wlxx_hal_hsem.c:225:6:HAL_HSEM_ReleaseAll	16	static
../Drivers/STM32WLxx_HAL_Driver/Src/stm32wlxx_hal_hsem.c:257:7:HAL_HSEM_SetClearKey	16	static
../Drivers/STM32WLxx_HAL_Driver/Src/stm32wlxx_hal_hsem.c:269:10:HAL_HSEM_GetClearKey	4	static
../Drivers/STM32WLxx_HAL_Driver/Src/stm32wlxx_hal_hsem.c:296:6:HAL_HSEM_ActivateNotification	16	static
../Drivers/STM32WLxx_HAL_Driver/Src/stm32wlxx_hal_hsem.c:306:6:HAL_HSEM_DeactivateNotification	16	static
../Drivers/STM32WLxx_HAL_Driver/Src/stm32wlxx_hal_hsem.c:315:6:HAL_HSEM_IRQHandler	16	static
../Drivers/STM32WLxx_HAL_Driver/Src/stm32wlxx_hal_hsem.c:336:13:HAL_HSEM_FreeCallback	16	static
