../../EndNode/Drivers/STM32WLxx_HAL_Driver/Inc/stm32wlxx_ll_adc.h:4177:22:LL_ADC_DisableInternalRegulator	16	static
../../EndNode/Drivers/STM32WLxx_HAL_Driver/Inc/stm32wlxx_ll_adc.h:4248:26:LL_ADC_IsEnabled	16	static
../../EndNode/Drivers/STM32WLxx_HAL_Driver/Inc/stm32wlxx_ll_adc.h:4305:26:LL_ADC_IsCalibrationOnGoing	16	static
../../EndNode/Drivers/STM32WLxx_HAL_Driver/Inc/stm32wlxx_ll_adc.h:4372:26:LL_ADC_REG_IsConversionOngoing	16	static
../Drivers/STM32WLxx_HAL_Driver/Src/stm32wlxx_hal_adc_ex.c:104:19:HAL_ADCEx_Calibration_Start	32	static
../Drivers/STM32WLxx_HAL_Driver/Src/stm32wlxx_hal_adc_ex.c:183:10:HAL_ADCEx_Calibration_GetValue	16	static
../Drivers/STM32WLxx_HAL_Driver/Src/stm32wlxx_hal_adc_ex.c:199:19:HAL_ADCEx_Calibration_SetValue	24	static
../Drivers/STM32WLxx_HAL_Driver/Src/stm32wlxx_hal_adc_ex.c:242:13:HAL_ADCEx_LevelOutOfWindow2Callback	16	static
../Drivers/STM32WLxx_HAL_Driver/Src/stm32wlxx_hal_adc_ex.c:257:13:HAL_ADCEx_LevelOutOfWindow3Callback	16	static
../Drivers/STM32WLxx_HAL_Driver/Src/stm32wlxx_hal_adc_ex.c:273:13:HAL_ADCEx_EndOfSamplingCallback	16	static
../Drivers/STM32WLxx_HAL_Driver/Src/stm32wlxx_hal_adc_ex.c:288:13:HAL_ADCEx_ChannelConfigReadyCallback	16	static
../Drivers/STM32WLxx_HAL_Driver/Src/stm32wlxx_hal_adc_ex.c:311:19:HAL_ADCEx_DisableVoltageRegulator	24	static
