../Drivers/STM32WLxx_HAL_Driver/Src/stm32wlxx_hal_cryp.c:447:19:HAL_CRYP_Init	16	static
../Drivers/STM32WLxx_HAL_Driver/Src/stm32wlxx_hal_cryp.c:515:19:HAL_CRYP_DeInit	16	static
../Drivers/STM32WLxx_HAL_Driver/Src/stm32wlxx_hal_cryp.c:568:19:HAL_CRYP_SetConfig	16	static
../Drivers/STM32WLxx_HAL_Driver/Src/stm32wlxx_hal_cryp.c:641:19:HAL_CRYP_GetConfig	16	static
../Drivers/STM32WLxx_HAL_Driver/Src/stm32wlxx_hal_cryp.c:695:13:HAL_CRYP_MspInit	16	static
../Drivers/STM32WLxx_HAL_Driver/Src/stm32wlxx_hal_cryp.c:711:13:HAL_CRYP_MspDeInit	16	static
../Drivers/STM32WLxx_HAL_Driver/Src/stm32wlxx_hal_cryp.c:917:6:HAL_CRYP_ProcessSuspend	16	static
../Drivers/STM32WLxx_HAL_Driver/Src/stm32wlxx_hal_cryp.c:933:19:HAL_CRYP_Suspend	32	static
../Drivers/STM32WLxx_HAL_Driver/Src/stm32wlxx_hal_cryp.c:1006:19:HAL_CRYP_Resume	24	static
../Drivers/STM32WLxx_HAL_Driver/Src/stm32wlxx_hal_cryp.c:1203:19:HAL_CRYP_Encrypt	32	static
../Drivers/STM32WLxx_HAL_Driver/Src/stm32wlxx_hal_cryp.c:1303:19:HAL_CRYP_Decrypt	32	static
../Drivers/STM32WLxx_HAL_Driver/Src/stm32wlxx_hal_cryp.c:1402:19:HAL_CRYP_Encrypt_IT	32	static
../Drivers/STM32WLxx_HAL_Driver/Src/stm32wlxx_hal_cryp.c:1512:19:HAL_CRYP_Decrypt_IT	32	static
../Drivers/STM32WLxx_HAL_Driver/Src/stm32wlxx_hal_cryp.c:1621:19:HAL_CRYP_Encrypt_DMA	40	static
../Drivers/STM32WLxx_HAL_Driver/Src/stm32wlxx_hal_cryp.c:1748:19:HAL_CRYP_Decrypt_DMA	32	static
../Drivers/STM32WLxx_HAL_Driver/Src/stm32wlxx_hal_cryp.c:1857:6:HAL_CRYP_IRQHandler	16	static
../Drivers/STM32WLxx_HAL_Driver/Src/stm32wlxx_hal_cryp.c:1909:10:HAL_CRYP_GetError	16	static
../Drivers/STM32WLxx_HAL_Driver/Src/stm32wlxx_hal_cryp.c:1920:23:HAL_CRYP_GetState	16	static
../Drivers/STM32WLxx_HAL_Driver/Src/stm32wlxx_hal_cryp.c:1931:13:HAL_CRYP_InCpltCallback	16	static
../Drivers/STM32WLxx_HAL_Driver/Src/stm32wlxx_hal_cryp.c:1947:13:HAL_CRYP_OutCpltCallback	16	static
../Drivers/STM32WLxx_HAL_Driver/Src/stm32wlxx_hal_cryp.c:1963:13:HAL_CRYP_ErrorCallback	16	static
../Drivers/STM32WLxx_HAL_Driver/Src/stm32wlxx_hal_cryp.c:1991:26:CRYP_AES_Encrypt	24	static
../Drivers/STM32WLxx_HAL_Driver/Src/stm32wlxx_hal_cryp.c:2061:26:CRYP_AES_Encrypt_IT	24	static
../Drivers/STM32WLxx_HAL_Driver/Src/stm32wlxx_hal_cryp.c:2138:26:CRYP_AES_Decrypt	24	static
../Drivers/STM32WLxx_HAL_Driver/Src/stm32wlxx_hal_cryp.c:2254:26:CRYP_AES_Decrypt_IT	24	static
../Drivers/STM32WLxx_HAL_Driver/Src/stm32wlxx_hal_cryp.c:2383:26:CRYP_AES_Decrypt_DMA	24	static
../Drivers/STM32WLxx_HAL_Driver/Src/stm32wlxx_hal_cryp.c:2500:13:CRYP_DMAInCplt	96	static
../Drivers/STM32WLxx_HAL_Driver/Src/stm32wlxx_hal_cryp.c:2609:13:CRYP_DMAOutCplt	56	static
../Drivers/STM32WLxx_HAL_Driver/Src/stm32wlxx_hal_cryp.c:2720:13:CRYP_DMAError	24	static
../Drivers/STM32WLxx_HAL_Driver/Src/stm32wlxx_hal_cryp.c:2752:13:CRYP_SetDMAConfig	24	static
../Drivers/STM32WLxx_HAL_Driver/Src/stm32wlxx_hal_cryp.c:2814:26:CRYP_SetHeaderDMAConfig	24	static
../Drivers/STM32WLxx_HAL_Driver/Src/stm32wlxx_hal_cryp.c:2850:13:CRYP_AES_ProcessData	40	static
../Drivers/STM32WLxx_HAL_Driver/Src/stm32wlxx_hal_cryp.c:2912:13:CRYP_AES_IT	40	static
../Drivers/STM32WLxx_HAL_Driver/Src/stm32wlxx_hal_cryp.c:3026:13:CRYP_SetKey	16	static
../Drivers/STM32WLxx_HAL_Driver/Src/stm32wlxx_hal_cryp.c:3062:26:CRYP_AESGCM_Process	64	static
../Drivers/STM32WLxx_HAL_Driver/Src/stm32wlxx_hal_cryp.c:3265:26:CRYP_AESGCM_Process_IT	104	static
../Drivers/STM32WLxx_HAL_Driver/Src/stm32wlxx_hal_cryp.c:3631:26:CRYP_AESGCM_Process_DMA	24	static
../Drivers/STM32WLxx_HAL_Driver/Src/stm32wlxx_hal_cryp.c:3735:26:CRYP_AESCCM_Process	64	static
../Drivers/STM32WLxx_HAL_Driver/Src/stm32wlxx_hal_cryp.c:3934:26:CRYP_AESCCM_Process_IT	104	static
../Drivers/STM32WLxx_HAL_Driver/Src/stm32wlxx_hal_cryp.c:4292:26:CRYP_AESCCM_Process_DMA	24	static
../Drivers/STM32WLxx_HAL_Driver/Src/stm32wlxx_hal_cryp.c:4395:13:CRYP_GCMCCM_SetPayloadPhase_IT	56	static
../Drivers/STM32WLxx_HAL_Driver/Src/stm32wlxx_hal_cryp.c:4549:26:CRYP_GCMCCM_SetPayloadPhase_DMA	56	static
../Drivers/STM32WLxx_HAL_Driver/Src/stm32wlxx_hal_cryp.c:4683:26:CRYP_GCMCCM_SetHeaderPhase	88	static
../Drivers/STM32WLxx_HAL_Driver/Src/stm32wlxx_hal_cryp.c:4843:26:CRYP_GCMCCM_SetHeaderPhase_DMA	88	static
../Drivers/STM32WLxx_HAL_Driver/Src/stm32wlxx_hal_cryp.c:4961:13:CRYP_GCMCCM_SetHeaderPhase_IT	96	static
../Drivers/STM32WLxx_HAL_Driver/Src/stm32wlxx_hal_cryp.c:5161:26:CRYP_WaitOnCCFlag	24	static
../Drivers/STM32WLxx_HAL_Driver/Src/stm32wlxx_hal_cryp.c:5190:13:CRYP_ClearCCFlagWhenHigh	24	static
../Drivers/STM32WLxx_HAL_Driver/Src/stm32wlxx_hal_cryp.c:5234:13:CRYP_Read_IVRegisters	24	static
../Drivers/STM32WLxx_HAL_Driver/Src/stm32wlxx_hal_cryp.c:5257:13:CRYP_Write_IVRegisters	24	static
../Drivers/STM32WLxx_HAL_Driver/Src/stm32wlxx_hal_cryp.c:5280:13:CRYP_Read_SuspendRegisters	24	static
../Drivers/STM32WLxx_HAL_Driver/Src/stm32wlxx_hal_cryp.c:5338:13:CRYP_Write_SuspendRegisters	24	static
../Drivers/STM32WLxx_HAL_Driver/Src/stm32wlxx_hal_cryp.c:5369:13:CRYP_Read_KeyRegisters	32	static
../Drivers/STM32WLxx_HAL_Driver/Src/stm32wlxx_hal_cryp.c:5417:13:CRYP_Write_KeyRegisters	32	static
../Drivers/STM32WLxx_HAL_Driver/Src/stm32wlxx_hal_cryp.c:5448:13:CRYP_PhaseProcessingResume	32	static
