../Drivers/STM32WLxx_HAL_Driver/Src/stm32wlxx_hal_dac_ex.c:118:19:HAL_DACEx_TriangleWaveGenerate	24	static
../Drivers/STM32WLxx_HAL_Driver/Src/stm32wlxx_hal_dac_ex.c:166:19:HAL_DACEx_NoiseWaveGenerate	24	static
../Drivers/STM32WLxx_HAL_Driver/Src/stm32wlxx_hal_dac_ex.c:205:19:HAL_DACEx_SelfCalibrate	48	static
../Drivers/STM32WLxx_HAL_Driver/Src/stm32wlxx_hal_dac_ex.c:329:19:HAL_DACEx_SetUserTrimming	32	static
../Drivers/STM32WLxx_HAL_Driver/Src/stm32wlxx_hal_dac_ex.c:370:10:HAL_DACEx_GetTrimOffset	16	static
