../Middlewares/LoRaWAN/LmHandler/NvmDataMgmt.c:52:6:NvmDataMgmtEvent	16	static
../Middlewares/LoRaWAN/LmHandler/NvmDataMgmt.c:59:10:NvmDataMgmtStore	4	static
../Middlewares/LoRaWAN/LmHandler/NvmDataMgmt.c:154:10:NvmDataMgmtRestore	4	static
../Middlewares/LoRaWAN/LmHandler/NvmDataMgmt.c:221:6:NvmDataMgmtFactoryReset	4	static
