../../EndNode/Drivers/STM32WLxx_HAL_Driver/Inc/stm32wlxx_ll_rcc.h:1258:22:LL_RCC_LSE_SetDriveCapability	16	static
../../EndNode/Drivers/STM32WLxx_HAL_Driver/Inc/stm32wlxx_ll_bus.h:449:22:LL_AHB2_GRP1_EnableClock	24	static
../Core/Src/main.c:66:8:hex2bin	32	static
../Core/Src/main.c:91:6:InitCrypto	8	static
../Core/Src/main.c:109:5:main	72	static
../Core/Src/main.c:133:6:SystemClock_Config	112	static
../Core/Src/main.c:174:13:MX_LPTIM1_Init	8	static
../Core/Src/main.c:195:6:MX_GPIO_Init	32	static
../Core/Src/main.c:213:9:LED_control	16	static
../Core/Src/main.c:218:6:StartLedTask	16	static
../Core/Src/main.c:228:6:StartLoRaWANTask	16	static
../Core/Src/main.c:255:6:DisplayAll	160	static
../Core/Src/main.c:276:6:sendData	48	dynamic
../Core/Src/main.c:335:8:string_to_hex	32	static
../Core/Src/main.c:345:8:concatenate_strings	32	static
../Core/Src/main.c:358:6:Error_Handler	4	static,ignoring_inline_asm
