../../EndNode/Drivers/STM32WLxx_HAL_Driver/Inc/stm32wlxx_ll_bus.h:914:22:LL_APB1_GRP1_EnableClock	24	static
../../EndNode/Drivers/STM32WLxx_HAL_Driver/Inc/stm32wlxx_ll_bus.h:1018:22:LL_APB1_GRP1_DisableClock	16	static
../Core/Src/stm32wlxx_hal_msp.c:64:6:HAL_MspInit	8	static
../Core/Src/stm32wlxx_hal_msp.c:83:6:HAL_LPTIM_MspInit	72	static
../Core/Src/stm32wlxx_hal_msp.c:118:6:HAL_LPTIM_MspDeInit	16	static
