../Core/Src/ds18b20.c:32:9:DS18B20_Start	16	static
../Core/Src/ds18b20.c:50:6:DS18B20_StartAll	8	static
../Core/Src/ds18b20.c:60:9:DS18B20_Read	40	static
../Core/Src/ds18b20.c:124:9:DS18B20_GetResolution	24	static
../Core/Src/ds18b20.c:151:9:DS18B20_SetResolution	24	static
../Core/Src/ds18b20.c:207:9:DS18B20_Is	16	static
../Core/Src/ds18b20.c:214:9:DS18B20_AllDone	8	static
../Core/Src/ds18b20.c:219:6:DS18B20_ReadAll	24	static
../Core/Src/ds18b20.c:237:6:DS18B20_GetROM	24	static
../Core/Src/ds18b20.c:248:6:DS18B20_WriteROM	24	static
../Core/Src/ds18b20.c:259:9:DS18B20_Quantity	4	static
../Core/Src/ds18b20.c:264:9:DS18B20_GetTemperature	16	static
../Core/Src/ds18b20.c:274:6:DS18B20_Init	24	static
