../Drivers/STM32WLxx_HAL_Driver/Inc/stm32wlxx_ll_bus.h:449:22:LL_AHB2_GRP1_EnableClock	24	static
../Drivers/STM32WLxx_HAL_Driver/Inc/stm32wlxx_ll_bus.h:914:22:LL_APB1_GRP1_EnableClock	24	static
../Drivers/STM32WLxx_HAL_Driver/Inc/stm32wlxx_ll_bus.h:1018:22:LL_APB1_GRP1_DisableClock	16	static
../Drivers/STM32WLxx_HAL_Driver/Inc/stm32wlxx_ll_bus.h:1303:22:LL_APB2_GRP1_EnableClock	24	static
../Drivers/STM32WLxx_HAL_Driver/Inc/stm32wlxx_ll_bus.h:1351:22:LL_APB2_GRP1_DisableClock	16	static
../Core/Src/stm32wlxx_hal_msp.c:63:6:HAL_MspInit	4	static
../Core/Src/stm32wlxx_hal_msp.c:82:6:HAL_TIM_Base_MspInit	16	static
../Core/Src/stm32wlxx_hal_msp.c:104:6:HAL_TIM_Base_MspDeInit	16	static
../Core/Src/stm32wlxx_hal_msp.c:126:6:HAL_UART_MspInit	96	static
../Core/Src/stm32wlxx_hal_msp.c:173:6:HAL_UART_MspDeInit	16	static
